Vizualize the WHO COVID-19 sitreps per Country • covid19viz
…
peru %>% count(sub_region_1)
#> # A tibble: 27 x 2
#>    sub_region_1      n
#>    <chr>         <int>
#>  1 Amazonas       1050
#>  2 Ancash         1871
#>  3 Apurimac        816
#>  4 Arequipa       1470
#>  5 Ayacucho       1050
#>  6 Cajamarca      1850
#>  7 Callao Region   210
#>  8 Cusco          1668
#>  9 Huancavelica    630
#> 10 Huanuco         630
#> # ... with 17 more rows
…
