jhu sitrep data management and visualization — jhu_sitrep_import • covid19viz
…
jhu_sitrep <- jhu_sitrep_import(source = "confirmed")
#> Parsed with column specification:
#> cols(
#>   .default = col_double(),
#>   `Province/State` = col_character(),
#>   `Country/Region` = col_character()
#> )
#> See spec(...) for full column specifications.

jhu_sitrep %>%
  jhu_sitrep_cleandb() %>%
  filter(country_region=="Peru") %>%
  arrange(desc(dates))
#> # A tibble: 237 x 7
#>    source    country_region province_state   lat  long dates       value
#>    <chr>     <chr>          <chr>          <dbl> <dbl> <date>      <dbl>
#>  1 confirmed Peru           NA             -9.19 -75.0 2020-09-14 729619
#>  2 confirmed Peru           NA             -9.19 -75.0 2020-09-13 722832
#>  3 confirmed Peru           NA             -9.19 -75.0 2020-09-12 716670
#>  4 confirmed Peru           NA             -9.19 -75.0 2020-09-11 710067
#>  5 confirmed Peru           NA             -9.19 -75.0 2020-09-10 702776
#>  6 confirmed Peru           NA             -9.19 -75.0 2020-09-09 696190
#>  7 confirmed Peru           NA             -9.19 -75.0 2020-09-08 691575
#>  8 confirmed Peru           NA             -9.19 -75.0 2020-09-07 689977
#>  9 confirmed Peru           NA             -9.19 -75.0 2020-09-06 683702
#> 10 confirmed Peru           NA             -9.19 -75.0 2020-09-05 676848
#> # ... with 227 more rows
…
