import mobility and intervention global data — read_google_global • covid19viz
…
#>   parks_percent_change_from_baseline = col_double(),
#>   transit_stations_percent_change_from_baseline = col_double(),
#>   workplaces_percent_change_from_baseline = col_double(),
#>   residential_percent_change_from_baseline = col_double()
#> )
#> Warning: 2584995 parsing failures.
#>  row        col           expected                  actual                                                                  file
#> 1846 metro_area 1/0/T/F/TRUE/FALSE Kabul Metropolitan Area 'https://www.gstatic.com/covid19/mobility/Global_Mobility_Report.csv'
#> 1847 metro_area 1/0/T/F/TRUE/FALSE Kabul Metropolitan Area 'https://www.gstatic.com/covid19/mobility/Global_Mobility_Report.csv'
#> 1848 metro_area 1/0/T/F/TRUE/FALSE Kabul Metropolitan Area 'https://www.gstatic.com/covid19/mobility/Global_Mobility_Report.csv'
#> 1849 metro_area 1/0/T/F/TRUE/FALSE Kabul Metropolitan Area 'https://www.gstatic.com/covid19/mobility/Global_Mobility_Report.csv'
#> 1850 metro_area 1/0/T/F/TRUE/FALSE Kabul Metropolitan Area 'https://www.gstatic.com/covid19/mobility/Global_Mobility_Report.csv'
#> .... .......... .................. ....................... .....................................................................
#> See problems(...) for more details.
#> # A tibble: 2,441,517 x 14
#>    country_region_~ country_region sub_region_1 sub_region_2 metro_area
#>    <chr>            <chr>          <chr>        <lgl>        <lgl>     
#>  1 AE               United Arab E~ NA           NA           NA        
#>  2 AE               United Arab E~ NA           NA           NA        
#>  3 AE               United Arab E~ NA           NA           NA        
#>  4 AE               United Arab E~ NA           NA           NA        
#>  5 AE               United Arab E~ NA           NA           NA        
#>  6 AE               United Arab E~ NA           NA           NA        
#>  7 AE               United Arab E~ NA           NA           NA        
#>  8 AE               United Arab E~ NA           NA           NA        
#>  9 AE               United Arab E~ NA           NA           NA        
#> 10 AE               United Arab E~ NA           NA           NA        
#> # ... with 2,441,507 more rows, and 9 more variables: iso_3166_2_code <chr>,
#> #   census_fips_code <lgl>, date <date>,
#> #   retail_and_recreation_percent_change_from_baseline <dbl>,
#> #   grocery_and_pharmacy_percent_change_from_baseline <dbl>,
#> #   parks_percent_change_from_baseline <dbl>,
#> #   transit_stations_percent_change_from_baseline <dbl>,
#> #   workplaces_percent_change_from_baseline <dbl>,
#> #   residential_percent_change_from_baseline <dbl>
…
#>   sub_region_1 = col_character(),
#>   sub_region_2 = col_character(),
#>   metro_area = col_logical(),
#>   iso_3166_2_code = col_character(),
#>   census_fips_code = col_logical(),
#>   date = col_date(format = ""),
#>   retail_and_recreation_percent_change_from_baseline = col_double(),
#>   grocery_and_pharmacy_percent_change_from_baseline = col_double(),
#>   parks_percent_change_from_baseline = col_double(),
#>   transit_stations_percent_change_from_baseline = col_double(),
#>   workplaces_percent_change_from_baseline = col_double(),
#>   residential_percent_change_from_baseline = col_double()
#> )
peru %>% count(sub_region_1)
#> # A tibble: 27 x 2
#>    sub_region_1      n
#>    <chr>         <int>
#>  1 Amazonas       1050
#>  2 Ancash         1871
#>  3 Apurimac        816
#>  4 Arequipa       1470
#>  5 Ayacucho       1050
#>  6 Cajamarca      1850
#>  7 Callao Region   210
#>  8 Cusco          1668
#>  9 Huancavelica    630
#> 10 Huanuco         630
#> # ... with 17 more rows

# acaps data
read_acaps_governments()
#> # A tibble: 193 x 8
#>    Country_name ISO3  REGION Measure_taxonomy Measure_Category SOURCE_TYPE
#>    <chr>        <chr> <chr>  <chr>            <chr>            <chr>      
#>  1 Afghanistan  AFG   Asia   Schools closure  Social distanci~ Government 
#>  2 Albania      ALB   Europe Border checks    Movement restri~ Media      
#>  3 Algeria      DZA   Africa Border closure   Movement restri~ UN         
#>  4 Angola       AGO   Africa Closure of busi~ Social distanci~ Other orga~
#>  5 Antigua and~ ATG   Ameri~ Isolation and q~ Public health m~ Social med~
#>  6 Argentina    ARG   Ameri~ Limit public ga~ Social distanci~ Other      
#>  7 Armenia      ARM   Asia   Economic measur~ Governance and ~ NA         
#>  8 Australia    AUS   Pacif~ Awareness campa~ Public health m~ NA         
#>  9 Austria      AUT   Europe International f~ Movement restri~ NA         
#> 10 Azerbaijan   AZE   Asia   Health screenin~ Public health m~ NA         
#> # ... with 183 more rows, and 2 more variables: Enforcement_taxonomy <chr>,
#> #   Log_type <chr>

# unesco education data
read_unesco_education()
#> Parsed with column specification:
#> cols(
#>   Date = col_character(),
#>   ISO = col_character(),
#>   Country = col_character(),
#>   Status = col_character(),
#>   Note = col_logical()
#> )
#> # A tibble: 41,714 x 5
#>    Date       ISO   Country  Status                 Note 
#>    <chr>      <chr> <chr>    <chr>                  <lgl>
#>  1 17/02/2020 CHN   China    Partially open         NA   
#>  2 17/02/2020 MNG   Mongolia Closed due to COVID-19 NA   
#>  3 18/02/2020 CHN   China    Partially open         NA   
#>  4 18/02/2020 MNG   Mongolia Closed due to COVID-19 NA   
#>  5 19/02/2020 CHN   China    Partially open         NA   
#>  6 19/02/2020 MNG   Mongolia Closed due to COVID-19 NA   
#>  7 20/02/2020 CHN   China    Partially open         NA   
#>  8 20/02/2020 MNG   Mongolia Closed due to COVID-19 NA   
#>  9 21/02/2020 CHN   China    Closed due to COVID-19 NA   
#> 10 21/02/2020 MNG   Mongolia Closed due to COVID-19 NA   
#> # ... with 41,704 more rows
…
